15 11
*S.##..#.##
**###.##..#
**######...
***##.##.#.
***####.###
*#..##.#...
*#.#..#.##.
*##..#.#...
*.#..##...#
*#...#...##
**#.#..###.
**...#..#..
***#..##..#
***.#.#####
E.#.#.###..
